{
    "assistant_name": "laraby",
    "wake_word": [
        "laraby",
        "larabi",
        "lara by",
        "lara bi",
        "laravy",
        "laravi",
        "lara vy",
        "lara vi"
    ],
    "device_name": [
        "pc diego",
        "pcdiego",
        "pec diego",
        "pce diego",
        "pece diego"
    ],
    "state": "Activo (Reconociendo)",
    "lang": "es"
}