[
	{
		"tipo": "diario",
		"hora": 0,
		"minuto": 3,
		"meridian": "am",
		"musica": {
			"?": false,
			"artista": null
		}
	},
	{
		"tipo": "semanal",
		"hora": 5,
		"minuto": 32,
		"meridian": "pm",
		"dia": 3,
		"musica": {
			"?": true,
			"artista": "skrillex"
		}
	},
	{
		"tipo": "mensual",
		"hora": 5,
		"minuto": 32,
		"meridian": "pm",
		"dia": 3,
		"musica": {
			"?": true,
			"artista": "skrillex"
		}
	},
	{
		"tipo": "anual",
		"hora": 5,
		"minuto": 32,
		"meridian": "pm",
		"dia": 3,
		"mes": 4,
		"musica": {
			"?": true,
			"artista": "skrillex"
		}
	}
]