\relax 
\providecommand*{\memsetcounter}[2]{}
\bbl@beforestart
\catcode `"\active 
\catcode `<\active 
\catcode `>\active 
\@nameuse{es@quoting}
\babel@aux{spanish}{}
\@writefile{toc}{\contentsline {chapter}{Índice general}{\es@scroman  {i}}\protected@file@percent }
\@writefile{lof}{\addvspace {10pt}}
\@writefile{lot}{\addvspace {10pt}}
\@writefile{toc}{\contentsline {chapter}{\chapternumberline {1}Memoria}{1}\protected@file@percent }
\newlabel{chap:memoria}{{\M@TitleReference {1}{Memoria}}{1}}
\@writefile{toc}{\contentsline {section}{\numberline {1.1}Presentación}{1}\protected@file@percent }
\newlabel{sec:presentacion}{{\M@TitleReference {1.1}{Presentación}}{1}}
\@writefile{toc}{\contentsline {subsection}{Resumen}{1}\protected@file@percent }
\newlabel{sec:resumen}{{\M@TitleReference {1.1}{Resumen}}{1}}
\@writefile{toc}{\contentsline {subsection}{Motivación}{1}\protected@file@percent }
\newlabel{sec:motivacion}{{\M@TitleReference {1.1}{Motivación}}{1}}
\@writefile{toc}{\contentsline {subsection}{Alcance}{1}\protected@file@percent }
\newlabel{sec:alcance}{{\M@TitleReference {1.1}{Alcance}}{1}}
\@writefile{toc}{\contentsline {subsection}{Objetivo}{1}\protected@file@percent }
\newlabel{sec:objetivo}{{\M@TitleReference {1.1}{Objetivo}}{1}}
\@writefile{toc}{\contentsline {section}{\numberline {1.2}Exposición}{1}\protected@file@percent }
\newlabel{sec:exposicion}{{\M@TitleReference {1.2}{Exposición}}{1}}
\@writefile{toc}{\contentsline {subsection}{Tema XXX}{1}\protected@file@percent }
\newlabel{sec:temaXXX}{{\M@TitleReference {1.2}{Tema XXX}}{1}}
\@writefile{toc}{\contentsline {section}{\numberline {1.3}Conclusiones}{1}\protected@file@percent }
\newlabel{sec:conclusiones}{{\M@TitleReference {1.3}{Conclusiones}}{1}}
\@writefile{toc}{\contentsline {subsection}{Grado de Consecución de los Objetivos}{1}\protected@file@percent }
\newlabel{sec:consecucion_objetivos}{{\M@TitleReference {1.3}{Grado de Consecución de los Objetivos}}{1}}
\@writefile{toc}{\contentsline {subsection}{Análisis del Alcance}{1}\protected@file@percent }
\newlabel{sec:analisis_alcance}{{\M@TitleReference {1.3}{Análisis del Alcance}}{1}}
\@writefile{toc}{\contentsline {subsection}{Puntos de Interés}{1}\protected@file@percent }
\newlabel{sec:puntos_interes}{{\M@TitleReference {1.3}{Puntos de Interés}}{1}}
\@writefile{toc}{\contentsline {subsection}{Aprendizajes}{1}\protected@file@percent }
\newlabel{sec:aprendizajes}{{\M@TitleReference {1.3}{Aprendizajes}}{1}}
\@writefile{toc}{\contentsline {subsection}{Reflexión}{1}\protected@file@percent }
\newlabel{sec:reflexion}{{\M@TitleReference {1.3}{Reflexión}}{1}}
\@writefile{lof}{\addvspace {10pt}}
\@writefile{lot}{\addvspace {10pt}}
\@writefile{toc}{\contentsline {chapter}{\chapternumberline {2}Anexos}{3}\protected@file@percent }
\newlabel{chap:anexos}{{\M@TitleReference {2}{Anexos}}{3}}
\@writefile{toc}{\contentsline {section}{\numberline {2.1}Diagramas UML}{3}\protected@file@percent }
\newlabel{sec:uml}{{\M@TitleReference {2.1}{Diagramas UML}}{3}}
\@writefile{toc}{\contentsline {section}{\numberline {2.2}Código}{3}\protected@file@percent }
\newlabel{sec:codigo}{{\M@TitleReference {2.2}{Código}}{3}}
\@writefile{toc}{\contentsline {chapter}{Índice de figuras}{3}\protected@file@percent }
\@writefile{toc}{\contentsline {chapter}{Índice de cuadros}{3}\protected@file@percent }
\memsetcounter{lastsheet}{7}
\memsetcounter{lastpage}{3}
